{
	"info": {
		"_postman_id": "36d478e3-b9d6-4cde-91da-b2956f531385",
		"name": "Assignment",
		"schema": "https://schema.getpostman.com/json/collection/v2.1.0/collection.json",
		"_exporter_id": "21011478"
	},
	"item": [
		{
			"name": "Get projects",
			"event": [
				{
					"listen": "test",
					"script": {
						"exec": [
							"/* Setting collection variables for usage in the subsequent APIs */",
							"var response = pm.response.json();",
							"pm.collectionVariables.set(\"id_key\", response[0].id);",
							"",
							"var num = pm.collectionVariables.get(\"issue_number\");",
							"var newNum = parseInt(num) + 1;",
							"pm.collectionVariables.set(\"issue_number\", newNum);"
						],
						"type": "text/javascript"
					}
				}
			],
			"protocolProfileBehavior": {
				"disableBodyPruning": true
			},
			"request": {
				"method": "GET",
				"header": [],
				"body": {
					"mode": "graphql",
					"graphql": {
						"query": "",
						"variables": ""
					}
				},
				"url": {
					"raw": "{{BaseURL}}users/{{user_name}}/projects/",
					"host": [
						"{{BaseURL}}users"
					],
					"path": [
						"{{user_name}}",
						"projects",
						""
					]
				}
			},
			"response": []
		},
		{
			"name": "Get project by ID",
			"event": [
				{
					"listen": "prerequest",
					"script": {
						"exec": [
							""
						],
						"type": "text/javascript"
					}
				},
				{
					"listen": "test",
					"script": {
						"exec": [
							""
						],
						"type": "text/javascript"
					}
				}
			],
			"request": {
				"method": "GET",
				"header": [],
				"url": {
					"raw": "{{BaseURL}}projects/{{id_key}}",
					"host": [
						"{{BaseURL}}projects"
					],
					"path": [
						"{{id_key}}"
					]
				}
			},
			"response": []
		},
		{
			"name": "Create issue",
			"event": [
				{
					"listen": "test",
					"script": {
						"exec": [
							"var jsonData = pm.response.json();",
							"",
							"/*This test will check if a success response code is returned */",
							"pm.test(\"Status code is 201 or 202\", function () {",
							"    pm.expect(pm.response.code).to.be.oneOf([201, 202]);",
							"});",
							"",
							"/*This test will check if a string is present with the response code */",
							"pm.test(\"Status code name has string\", function () {",
							"    pm.response.to.have.status(\"Created\");",
							"});",
							"",
							"/*This test will check if Content-Type header is present  */",
							"pm.test(\"Content-Type is present\", function () {",
							"        pm.response.to.have.header(\"Content-Type\");",
							"});",
							"",
							"/* This test will check if the state variable is set to its correct value */",
							"pm.test(\"Issue state is correct\", function () {",
							"    pm.expect(jsonData.state).to.eql(\"opened\");",
							"});",
							"",
							"/* This test will check if the title value is set correctly */",
							"pm.test(\"Issue name is correct\", function () {",
							"    var title = pm.collectionVariables.get(\"issue_title\")",
							"    var issueNumber = pm.collectionVariables.get(\"issue_number\")",
							"    pm.expect(jsonData.title).to.eql(title.concat(issueNumber));",
							"});",
							"",
							"/* This test will check if the response body has the same username as defined in the global variable */",
							"pm.test(\"Response body contains correct username\", function () {",
							"    pm.expect(pm.response.text()).to.include(pm.collectionVariables.get(\"user_name\"));",
							"});",
							"",
							"/* This test will check if the issue type is set correctly */",
							"pm.test(\"Issue type is correct\", function () {",
							"    pm.expect(jsonData.type).to.eql(\"ISSUE\");",
							"});",
							""
						],
						"type": "text/javascript"
					}
				},
				{
					"listen": "prerequest",
					"script": {
						"exec": [
							""
						],
						"type": "text/javascript"
					}
				}
			],
			"request": {
				"method": "POST",
				"header": [],
				"url": {
					"raw": "{{BaseURL}}projects/{{id_key}}/issues?title={{issue_title}}{{issue_number}}",
					"host": [
						"{{BaseURL}}projects"
					],
					"path": [
						"{{id_key}}",
						"issues"
					],
					"query": [
						{
							"key": "title",
							"value": "{{issue_title}}{{issue_number}}"
						}
					]
				}
			},
			"response": []
		},
		{
			"name": "Get all issues",
			"event": [
				{
					"listen": "prerequest",
					"script": {
						"exec": [
							""
						],
						"type": "text/javascript"
					}
				},
				{
					"listen": "test",
					"script": {
						"exec": [
							"var jsonData = pm.response.json();",
							"pm.collectionVariables.set(\"issue_iid\", jsonData[0].iid);",
							"",
							"/*This test will check if a success response code is returned */",
							"pm.test(\"Status code is 200\", function () {",
							"    pm.response.to.have.status(200);",
							"});",
							"",
							"/*This test will check if Content-Type header is present  */",
							"pm.test(\"Content-Type is present\", function () {",
							"        pm.response.to.have.header(\"Content-Type\");",
							"});",
							"",
							"/* This test will check if the username variable has the same value as defined in the collection variable */",
							"pm.test(\"Response body contains correct username\", function () {",
							"    pm.expect(jsonData[0].author.username).to.eql(pm.collectionVariables.get(\"user_name\"));",
							"    pm.expect(jsonData[0].author.name).to.eql(pm.collectionVariables.get(\"user_name\"));",
							"    pm.expect(pm.response.text()).to.include(pm.collectionVariables.get(\"user_name\"));",
							"});",
							"",
							"/* This test will check if the author state is set to active in the response\" */",
							"pm.test(\"Author state is active\", function () {",
							"    pm.expect(jsonData[0].author.state).to.eql(\"active\");",
							"});",
							""
						],
						"type": "text/javascript"
					}
				}
			],
			"request": {
				"method": "GET",
				"header": [],
				"url": {
					"raw": "{{BaseURL}}projects/{{id_key}}/issues",
					"host": [
						"{{BaseURL}}projects"
					],
					"path": [
						"{{id_key}}",
						"issues"
					]
				}
			},
			"response": []
		},
		{
			"name": "Update issue",
			"event": [
				{
					"listen": "test",
					"script": {
						"exec": [
							"/*This test will check if a success response code is returned */\r",
							"pm.test(\"Status code is 200\", function () {\r",
							"    pm.response.to.have.status(200);\r",
							"});\r",
							"\r",
							"/*This test will check if Content-Type header is present  */\r",
							"pm.test(\"Content-Type is present\", function () {\r",
							"        pm.response.to.have.header(\"Content-Type\");\r",
							"});\r",
							""
						],
						"type": "text/javascript"
					}
				}
			],
			"request": {
				"method": "PUT",
				"header": [],
				"url": {
					"raw": "{{BaseURL}}/projects/{{id_key}}/issues/{{issue_iid}}?labels=Incident,Defect&description=Production%20issue",
					"host": [
						"{{BaseURL}}"
					],
					"path": [
						"projects",
						"{{id_key}}",
						"issues",
						"{{issue_iid}}"
					],
					"query": [
						{
							"key": "labels",
							"value": "Incident,Defect"
						},
						{
							"key": "description",
							"value": "Production%20issue"
						}
					]
				}
			},
			"response": []
		},
		{
			"name": "Bad request",
			"event": [
				{
					"listen": "test",
					"script": {
						"exec": [
							"/*This test will check if a failure response code is returned for an issue that do not exist */\r",
							"pm.test(\"Status code is 400\", function () {\r",
							"    pm.response.to.have.status(400);\r",
							"});\r",
							"\r",
							"/*This test will check if a string is present with the response code */\r",
							"pm.test(\"Status code name has string\", function () {\r",
							"    pm.response.to.have.status(\"Bad Request\");\r",
							"});\r",
							"\r",
							"/*This test will check if the response body has an error message */\r",
							"pm.test(\"Body contains error\", function () {\r",
							"    pm.expect(pm.response.text()).to.include(\"error\");\r",
							"});"
						],
						"type": "text/javascript"
					}
				}
			],
			"request": {
				"method": "PUT",
				"header": [],
				"url": {
					"raw": "{{BaseURL}}/projects/{{id_key}}/issues/{{issue_iid}}?label=2",
					"host": [
						"{{BaseURL}}"
					],
					"path": [
						"projects",
						"{{id_key}}",
						"issues",
						"{{issue_iid}}"
					],
					"query": [
						{
							"key": "label",
							"value": "2"
						}
					]
				}
			},
			"response": []
		},
		{
			"name": "Get updated issue",
			"event": [
				{
					"listen": "prerequest",
					"script": {
						"exec": [
							""
						],
						"type": "text/javascript"
					}
				},
				{
					"listen": "test",
					"script": {
						"exec": [
							"var jsonData = pm.response.json();",
							"",
							"/* This test will check if the labels are updated correctly\" */",
							"pm.test(\"Labels are updated correctly\", function () {    ",
							"    pm.expect(jsonData.labels).to.eql([\"Defect\", \"Incident\"]);",
							"});",
							"",
							"/* This test will check if the description field is updated correctly\" */",
							"pm.test(\"Description is updated correctly\", function () {",
							"    pm.expect(jsonData.description).to.eql(\"Production issue\");",
							"});",
							"",
							"/* This test will check if the title value is set correctly */",
							"pm.test(\"Issue title is not changed\", function () {",
							"    var title = pm.collectionVariables.get(\"issue_title\")",
							"    var issueNumber = pm.collectionVariables.get(\"issue_number\")",
							"    pm.expect(jsonData.title).to.eql(title.concat(issueNumber));",
							"});",
							"",
							""
						],
						"type": "text/javascript"
					}
				}
			],
			"request": {
				"method": "GET",
				"header": [],
				"url": {
					"raw": "{{BaseURL}}projects/{{id_key}}/issues/{{issue_iid}}",
					"host": [
						"{{BaseURL}}projects"
					],
					"path": [
						"{{id_key}}",
						"issues",
						"{{issue_iid}}"
					]
				}
			},
			"response": []
		},
		{
			"name": "Delete issue",
			"event": [
				{
					"listen": "test",
					"script": {
						"exec": [
							"/*This test will check if a success response code is returned */",
							"pm.test(\"Status code is 204\", function () {",
							"    pm.response.to.have.status(204);",
							"});",
							"",
							"/*This test will check if a string is present with the response code */",
							"pm.test(\"Status code name has string\", function () {",
							"    pm.response.to.have.status(\"No Content\");",
							"});",
							"",
							"/* This test will check that an empty response body is returned */",
							"pm.test (\"Response body is empty\", function () { ",
							"    pm.expect ((_.isEmpty(responseBody))).to.be.true ",
							"});",
							"",
							""
						],
						"type": "text/javascript"
					}
				}
			],
			"request": {
				"method": "DELETE",
				"header": [],
				"url": {
					"raw": "{{BaseURL}}projects/{{id_key}}/issues/{{issue_iid}}",
					"host": [
						"{{BaseURL}}projects"
					],
					"path": [
						"{{id_key}}",
						"issues",
						"{{issue_iid}}"
					]
				}
			},
			"response": []
		},
		{
			"name": "Get deleted issue",
			"event": [
				{
					"listen": "test",
					"script": {
						"exec": [
							"/*This test will check if a failure response code is returned for an issue that do not exist */\r",
							"pm.test(\"Status code is 404\", function () {\r",
							"    pm.response.to.have.status(404);\r",
							"});\r",
							"\r",
							"/*This test will check if a string is present with the response code */\r",
							"pm.test(\"Status code name has string\", function () {\r",
							"    pm.response.to.have.status(\"Not Found\");\r",
							"});\r",
							"\r",
							"/*This test will check if the response body has an error message */\r",
							"pm.test(\"Body contains error message\", function () {\r",
							"    pm.expect(pm.response.text()).to.include(\"404 Not found\");\r",
							"});"
						],
						"type": "text/javascript"
					}
				}
			],
			"request": {
				"method": "GET",
				"header": [],
				"url": {
					"raw": "{{BaseURL}}projects/{{id_key}}/issues/{{issue_iid}}",
					"host": [
						"{{BaseURL}}projects"
					],
					"path": [
						"{{id_key}}",
						"issues",
						"{{issue_iid}}"
					]
				}
			},
			"response": []
		}
	],
	"auth": {
		"type": "bearer",
		"bearer": [
			{
				"key": "token",
				"value": "glpat-bGzpD6Gf81qFNBDZzVWW",
				"type": "string"
			}
		]
	},
	"event": [
		{
			"listen": "prerequest",
			"script": {
				"type": "text/javascript",
				"exec": [
					""
				]
			}
		},
		{
			"listen": "test",
			"script": {
				"type": "text/javascript",
				"exec": [
					""
				]
			}
		}
	],
	"variable": [
		{
			"key": "BaseURL",
			"value": "https://gitlab.com/api/v4/"
		},
		{
			"key": "id_key",
			"value": "1",
			"type": "string"
		},
		{
			"key": "issue_iid",
			"value": "1"
		},
		{
			"key": "issue_title",
			"value": "Issue"
		},
		{
			"key": "user_name",
			"value": "Bidita25",
			"type": "string"
		},
		{
			"key": "issue_number",
			"value": "1",
			"type": "string"
		}
	]
}